#,Case,Error,Checkpoint
0,beatv63subject.480.60.0.0.40.1.1.3.1/beat_seq/best_new_metric,1.6044377266920815,200904/beatv63subject.480.60.0.0.40.1.1.3.1/checkpoint/beat_seq/best_new_metric
1,beatv63subject.480.60.0.0.40.1.1.3.2/beat_seq/best_new_metric,1.6302993215094927,200904/beatv63subject.480.60.0.0.40.1.1.3.2/checkpoint/beat_seq/best_new_metric
2,beatv63subject.480.60.0.0.40.1.1.3.0/beat_net/best_new_metric,1.6732702004707751,200904/beatv63subject.480.60.0.0.40.1.1.3.0/checkpoint/beat_net/best_new_metric
3,beatv63subject.480.60.0.0.40.1.0.3.1/beat_seq/best_new_metric,1.7031837892238615,200904/beatv63subject.480.60.0.0.40.1.0.3.1/checkpoint/beat_seq/best_new_metric
4,beatv63subject.480.60.0.0.40.1.0.3.2/beat_seq/best_new_metric,1.7415948649014368,200904/beatv63subject.480.60.0.0.40.1.0.3.2/checkpoint/beat_seq/best_new_metric
5,beatv63subject.480.60.0.0.40.1.1.3.2/beat_net/best_new_metric,1.7926830748219338,200904/beatv63subject.480.60.0.0.40.1.1.3.2/checkpoint/beat_net/best_new_metric
6,beatv63subject.480.60.0.2.40.1.1.3.0/beat_net/best_new_metric,1.8320378409489195,200904/beatv63subject.480.60.0.2.40.1.1.3.0/checkpoint/beat_net/best_new_metric
7,beatv63subject.480.60.0.2.40.1.0.3.2/beat_seq/best_new_metric,1.8611977496380518,200904/beatv63subject.480.60.0.2.40.1.0.3.2/checkpoint/beat_seq/best_new_metric
8,beatv63subject.480.60.0.0.40.1.0.3.0/beat_seq/best_new_metric,1.88033654172956,200904/beatv63subject.480.60.0.0.40.1.0.3.0/checkpoint/beat_seq/best_new_metric
9,beatv63subject.480.60.0.2.40.1.1.3.1/beat_net/best_new_metric,1.8926635298722942,200904/beatv63subject.480.60.0.2.40.1.1.3.1/checkpoint/beat_net/best_new_metric
10,beatv63subject.480.60.0.2.40.1.1.3.2/beat_net/best_new_metric,1.9081361717961403,200831/beatv63subject.480.60.0.2.40.1.1.3.2/checkpoint/beat_net/best_new_metric
11,beatv63subject.480.60.0.0.40.1.1.3.1/beat_net/best_new_metric,1.9271848523716246,200904/beatv63subject.480.60.0.0.40.1.1.3.1/checkpoint/beat_net/best_new_metric
12,beatv63subject.480.60.0.2.40.1.0.3.0/beat_seq/best_new_metric,1.9720934210409204,200904/beatv63subject.480.60.0.2.40.1.0.3.0/checkpoint/beat_seq/best_new_metric
13,beatv63subject.480.60.0.0.40.1.0.3.2/beat_net/best_new_metric,1.9727072382381583,200904/beatv63subject.480.60.0.0.40.1.0.3.2/checkpoint/beat_net/best_new_metric
14,beatv63subject.480.60.0.2.40.1.0.3.1/beat_net/best_new_metric,1.9796678703508486,200831/beatv63subject.480.60.0.2.40.1.0.3.1/checkpoint/beat_net/best_new_metric
