#,Case,Error,Checkpoint
0,beatv63subject.480.60.0.0.0.3.0.12.200.0/beat_seq3/best_new_f1,0.5024879408084729,/mnt/ai_data/MegaDataset/beat_classification/210127test/beatv63subject.480.60.0.0.0.3.0.12.200.0/checkpoint/beat_seq3/best_new_f1
1,beatv63subject.480.60.0.0.0.3.0.12.0.0/beat_seq3/best_new_f1,0.5547030367391839,/mnt/ai_data/MegaDataset/beat_classification/210127test/beatv63subject.480.60.0.0.0.3.0.12.0.0/checkpoint/beat_seq3/best_new_f1
