#,Case,Error,Checkpoint
0,beatv63subject.480.60.0.0.0.3.0.12.200.1/beat_seq3/best_new_f1,0.4625590339613293,/mnt/ai_data/MegaDataset/beat_classification/210126test2/beatv63subject.480.60.0.0.0.3.0.12.200.1/checkpoint/beat_seq3/best_new_f1
1,beatv63subject.480.60.0.0.0.3.0.12.200.0/beat_seq3/best_new_f1,0.46446153016581876,/mnt/ai_data/MegaDataset/beat_classification/210126test2/beatv63subject.480.60.0.0.0.3.0.12.200.0/checkpoint/beat_seq3/best_new_f1
2,beatv63subject.480.60.0.0.0.3.0.12.0.0/beat_seq3/best_new_f1,0.47228796844181464,/mnt/ai_data/MegaDataset/beat_classification/210126test2/beatv63subject.480.60.0.0.0.3.0.12.0.0/checkpoint/beat_seq3/best_new_f1
3,beatv63subject.480.60.0.0.0.3.0.12.0.1/beat_seq3/best_new_f1,0.47821451675045723,/mnt/ai_data/MegaDataset/beat_classification/210126test2/beatv63subject.480.60.0.0.0.3.0.12.0.1/checkpoint/beat_seq3/best_new_f1
