#,Case,Error,Checkpoint
0,beatv63subject.240.60.0.0.40.3.1.11.0.0/beat_net/best_new_f1,0.5354536279059136,/mnt/ai_data/MegaDataset/beat_classification/201007/beatv63subject.240.60.0.0.40.3.1.11.0.0/checkpoint/beat_net/best_new_f1
1,beatv63subject.240.60.0.0.40.3.1.11.0.0/beat_seq/best_new_f1,0.5859655744039987,/mnt/ai_data/MegaDataset/beat_classification/201007/beatv63subject.240.60.0.0.40.3.1.11.0.0/checkpoint/beat_seq/best_new_f1
